﻿[
	{
		"_id": "co-100",
		"_parentId": "course",
		"_type": "page",
		"_graphic": {
			"alt": "",
			"src": "course/en/images/contentObjects/landing_01.png"
		},
		"_classes": "zh_cn",
		"displayTitle": "Facebook広告について",
		"title": "Facebook広告について",
		"body": "Facebook広告の構造と配信のしくみを説明します。",
		"pageBody": " ",
		"linkText": "見る",
		"height":"570",
		"durationLabel": "所要時間: ",
		"duration": "6分",
		"_pageLevelProgress": {
			"_isEnabled": true
		}
	},
	{
		"_id": "co-200",
		"_parentId": "course",
		"_type": "page",
		"_graphic": {
			"alt": "",
			"src": "course/en/images/contentObjects/landing_02.jpg"
		},
		"_classes": "zh_cn",
		"displayTitle": "広告マネージャの概要",
		"title": "広告マネージャの概要",
		"body": "広告マネージャでは、ひとつのツールで広告の作成からFacebookファミリーのアプリやサービス全体への配信までを行えます。改良により機能が向上しました。",
		"pageBody": " ",
		"linkText": "見る",
		"height":"570",
		"durationLabel": "所要時間: ",
		"duration": "2分",
		"_pageLevelProgress": {
			"_isEnabled": true
		}
	},
	{
		"_id": "co-300",
		"_parentId": "course",
		"_type": "page",
		"_graphic": {
			"alt": "",
			"src": "course/en/images/contentObjects/landing_03.png"
		},
		"_classes": "zh_cn",
		"displayTitle": "ガイドツールを使用した作成",
		"title": "ガイドツールを使用した作成",
		"body": "広告を1件ずつ作成するためのシンプルなソリューションです。",
		"pageBody": " ",
		"height":"570",
		"linkText": "見る",
		"durationLabel": "所要時間: ",
		"duration": "6分",
		"_pageLevelProgress": {
			"_isEnabled": true
		}
	},
	{
		"_id": "co-400",
		"_parentId": "course",
		"_type": "page",
		"_graphic": {
			"alt": "",
			"src": "course/en/images/contentObjects/landing_04.jpg"
		},
		"_classes": "zh_cn",
		"displayTitle": "クイック作成",
		"title": "クイック作成",
		"body": "このワークフローでは広告テンプレートをすばやく作成し、後で必要に応じて詳細を追加できます。",
		"pageBody": " ",
		"height":"570",
		"linkText": "見る",
		"durationLabel": "所要時間: ",
		"duration": "4分",
		"_pageLevelProgress": {
			"_isEnabled": true
		}
	},
	{
		"_id": "co-500",
		"_parentId": "course",
		"_type": "page",
		"_graphic": {
			"alt": "",
			"src": "course/en/images/contentObjects/landing_05.png"
		},
		"_classes": "zh_cn",
		"displayTitle": "ベストプラクティスと実施のポイント",
		"title": "ベストプラクティスと実施のポイント",
		"body": "Facebook広告アカウントのアクセス権限の管理、支払い、広告の審査などについて説明します。",
		"pageBody": " ",
		"height":"570",
		"linkText": "見る",
		"durationLabel": "所要時間: ",
		"duration": "8分",
		"_pageLevelProgress": {
			"_isEnabled": true
		}
	},
	{
		"_id": "co-600",
		"_parentId": "course",
		"_type": "page",
		"_graphic": {
			"alt": "",
			"src": "course/en/images/contentObjects/landing_kc.png"
		},
		"_classes": "zh_cn",
		"displayTitle": "コース内容の復習",
		"title": "コース内容の復習",
		"body": "学んだことを振り返ってみましょう。クイズの結果は利用者本人以外には表示されません。",
		"pageBody": " ",
		"height":"570",
		"linkText": "見る",
		"durationLabel": "所要時間: ",
		"duration": "4分",
		"_pageLevelProgress": {
			"_isEnabled": true
		}
	}
]